[
    {
        "reqatk": null, 
        "reqdef": null, 
        "objid": 1, 
        "stackable": false, 
        "equip": 0, 
        "description": null, 
        "texture": "items\\common\\bones.png", 
        "name": "Bones"
    }, 
    {
        "reqatk": 1, 
        "reqdef": null, 
        "objid": 2, 
        "stackable": false, 
        "equip": 1, 
        "description": "Check out dat Axe.", 
        "texture": "items\\axes\\axe.png", 
        "name": "Axe"
    }, 
    {
        "reqatk": null, 
        "reqdef": null, 
        "objid": 3, 
        "stackable": false, 
        "equip": 0, 
        "description": "Logs, standard issue.", 
        "texture": "items\\common\\logs.png", 
        "name": "Logs"
    }
]